<mxfile host="app.diagrams.net" modified="2021-02-05T22:16:17.972Z" agent="5.0 (X11)" etag="US46wd553O87YrCKwaaE" version="14.2.9" type="gitlab">
  <diagram id="ViD1SlEjiE8IIhePU1HL" name="Page-1">
    <mxGraphModel dx="1594" dy="940" grid="1" gridSize="10" guides="1" tooltips="1" connect="1" arrows="1" fold="1" page="1" pageScale="1" pageWidth="850" pageHeight="1100" math="0" shadow="0">
      <root>
        <mxCell id="0" />
        <mxCell id="1" parent="0" />
        <mxCell id="gdnsNoD937hj0CEBPprj-93" value="" style="rounded=0;whiteSpace=wrap;html=1;fontSize=16;strokeColor=none;fillColor=#E6E6E6;" vertex="1" parent="1">
          <mxGeometry x="650" y="228" width="250" height="262" as="geometry" />
        </mxCell>
        <mxCell id="gdnsNoD937hj0CEBPprj-50" value="" style="rounded=0;whiteSpace=wrap;html=1;fontSize=16;strokeColor=none;fillColor=#E6E6E6;" vertex="1" parent="1">
          <mxGeometry x="325" y="750" width="250" height="182" as="geometry" />
        </mxCell>
        <mxCell id="gdnsNoD937hj0CEBPprj-44" value="" style="rounded=0;whiteSpace=wrap;html=1;fontSize=16;strokeColor=none;fillColor=#E6E6E6;" vertex="1" parent="1">
          <mxGeometry y="228" width="250" height="332" as="geometry" />
        </mxCell>
        <mxCell id="EqhZu1eOrCG1yo601mlV-13" value="" style="rounded=0;whiteSpace=wrap;html=1;fontSize=16;strokeColor=none;fillColor=#E6E6E6;" parent="1" vertex="1">
          <mxGeometry x="325" y="228" width="250" height="392" as="geometry" />
        </mxCell>
        <mxCell id="EqhZu1eOrCG1yo601mlV-8" style="edgeStyle=orthogonalEdgeStyle;rounded=0;orthogonalLoop=1;jettySize=auto;html=1;entryX=0.5;entryY=0;entryDx=0;entryDy=0;fontSize=16;" parent="1" source="EqhZu1eOrCG1yo601mlV-2" target="EqhZu1eOrCG1yo601mlV-3" edge="1">
          <mxGeometry relative="1" as="geometry" />
        </mxCell>
        <mxCell id="EqhZu1eOrCG1yo601mlV-9" style="edgeStyle=orthogonalEdgeStyle;rounded=0;orthogonalLoop=1;jettySize=auto;html=1;fontSize=16;" parent="1" source="EqhZu1eOrCG1yo601mlV-2" target="EqhZu1eOrCG1yo601mlV-4" edge="1">
          <mxGeometry relative="1" as="geometry" />
        </mxCell>
        <mxCell id="EqhZu1eOrCG1yo601mlV-10" style="edgeStyle=orthogonalEdgeStyle;rounded=0;orthogonalLoop=1;jettySize=auto;html=1;entryX=0.5;entryY=0;entryDx=0;entryDy=0;fontSize=16;" parent="1" source="EqhZu1eOrCG1yo601mlV-2" target="EqhZu1eOrCG1yo601mlV-5" edge="1">
          <mxGeometry relative="1" as="geometry" />
        </mxCell>
        <mxCell id="EqhZu1eOrCG1yo601mlV-2" value="CI/CD pipelines" style="text;html=1;strokeColor=none;fillColor=none;align=center;verticalAlign=middle;whiteSpace=wrap;rounded=0;fontSize=16;fontStyle=1" parent="1" vertex="1">
          <mxGeometry x="370" y="45" width="160" height="40" as="geometry" />
        </mxCell>
        <mxCell id="EqhZu1eOrCG1yo601mlV-24" style="edgeStyle=orthogonalEdgeStyle;rounded=0;orthogonalLoop=1;jettySize=auto;html=1;entryX=0.5;entryY=0;entryDx=0;entryDy=0;fontSize=16;dashed=1;endArrow=none;endFill=0;exitX=0.5;exitY=1;exitDx=0;exitDy=0;" parent="1" source="EqhZu1eOrCG1yo601mlV-3" target="EqhZu1eOrCG1yo601mlV-16" edge="1">
          <mxGeometry relative="1" as="geometry">
            <mxPoint x="125" y="225" as="sourcePoint" />
          </mxGeometry>
        </mxCell>
        <mxCell id="EqhZu1eOrCG1yo601mlV-3" value="Apps" style="text;html=1;strokeColor=none;fillColor=none;align=center;verticalAlign=middle;whiteSpace=wrap;rounded=0;fontSize=16;fontStyle=1" parent="1" vertex="1">
          <mxGeometry x="45" y="135" width="160" height="40" as="geometry" />
        </mxCell>
        <mxCell id="EqhZu1eOrCG1yo601mlV-4" value="Releases" style="text;html=1;strokeColor=none;fillColor=none;align=center;verticalAlign=middle;whiteSpace=wrap;rounded=0;fontSize=16;fontStyle=1" parent="1" vertex="1">
          <mxGeometry x="370" y="135" width="160" height="40" as="geometry" />
        </mxCell>
        <mxCell id="EqhZu1eOrCG1yo601mlV-5" value="Infrastructure" style="text;html=1;strokeColor=none;fillColor=none;align=center;verticalAlign=middle;whiteSpace=wrap;rounded=0;fontSize=16;fontStyle=1" parent="1" vertex="1">
          <mxGeometry x="695" y="135" width="160" height="40" as="geometry" />
        </mxCell>
        <mxCell id="gdnsNoD937hj0CEBPprj-68" style="edgeStyle=orthogonalEdgeStyle;rounded=0;orthogonalLoop=1;jettySize=auto;html=1;exitX=0.5;exitY=1;exitDx=0;exitDy=0;entryX=0.5;entryY=0;entryDx=0;entryDy=0;dashed=1;endArrow=none;endFill=0;" edge="1" parent="1" source="EqhZu1eOrCG1yo601mlV-16" target="EqhZu1eOrCG1yo601mlV-26">
          <mxGeometry relative="1" as="geometry" />
        </mxCell>
        <mxCell id="EqhZu1eOrCG1yo601mlV-16" value="static testing&lt;br&gt;&lt;div&gt;&lt;i&gt;code style&lt;/i&gt;&lt;br&gt;&lt;/div&gt;" style="text;html=1;strokeColor=none;fillColor=none;align=center;verticalAlign=middle;whiteSpace=wrap;rounded=0;fontSize=16;" parent="1" vertex="1">
          <mxGeometry y="250" width="250" height="40" as="geometry" />
        </mxCell>
        <mxCell id="y0mUGvuwtMBkLAOSmKgf-28" style="edgeStyle=orthogonalEdgeStyle;rounded=0;orthogonalLoop=1;jettySize=auto;html=1;entryX=0;entryY=0.5;entryDx=0;entryDy=0;dashed=1;strokeColor=#808080;exitX=0.5;exitY=1;exitDx=0;exitDy=0;" parent="1" source="EqhZu1eOrCG1yo601mlV-33" target="EqhZu1eOrCG1yo601mlV-4" edge="1">
          <mxGeometry relative="1" as="geometry">
            <Array as="points">
              <mxPoint x="125" y="740" />
              <mxPoint x="270" y="740" />
              <mxPoint x="270" y="155" />
            </Array>
          </mxGeometry>
        </mxCell>
        <mxCell id="EqhZu1eOrCG1yo601mlV-17" value="&lt;div&gt;Docker images&lt;/div&gt;&lt;div&gt;Python packages&lt;br&gt;&lt;/div&gt;" style="text;html=1;fillColor=#dae8fc;align=center;verticalAlign=middle;whiteSpace=wrap;rounded=0;fontSize=16;fontStyle=1;strokeColor=#6c8ebf;" parent="1" vertex="1">
          <mxGeometry y="594" width="250" height="60" as="geometry" />
        </mxCell>
        <mxCell id="EqhZu1eOrCG1yo601mlV-26" value="&lt;div&gt;unit testing&lt;br&gt;&lt;/div&gt;&lt;div&gt;&lt;i&gt;verify functionality&lt;/i&gt;&lt;br&gt;&lt;/div&gt;" style="text;html=1;strokeColor=none;fillColor=none;align=center;verticalAlign=middle;whiteSpace=wrap;rounded=0;fontSize=16;" parent="1" vertex="1">
          <mxGeometry y="311" width="250" height="40" as="geometry" />
        </mxCell>
        <mxCell id="EqhZu1eOrCG1yo601mlV-30" style="edgeStyle=orthogonalEdgeStyle;rounded=0;orthogonalLoop=1;jettySize=auto;html=1;entryX=0.5;entryY=1;entryDx=0;entryDy=0;dashed=1;endArrow=none;endFill=0;fontSize=16;" parent="1" source="EqhZu1eOrCG1yo601mlV-27" target="EqhZu1eOrCG1yo601mlV-26" edge="1">
          <mxGeometry relative="1" as="geometry" />
        </mxCell>
        <mxCell id="gdnsNoD937hj0CEBPprj-66" style="edgeStyle=orthogonalEdgeStyle;rounded=0;orthogonalLoop=1;jettySize=auto;html=1;exitX=0.5;exitY=1;exitDx=0;exitDy=0;entryX=0.5;entryY=0;entryDx=0;entryDy=0;dashed=1;endArrow=none;endFill=0;" edge="1" parent="1" source="EqhZu1eOrCG1yo601mlV-27" target="gdnsNoD937hj0CEBPprj-23">
          <mxGeometry relative="1" as="geometry" />
        </mxCell>
        <mxCell id="EqhZu1eOrCG1yo601mlV-27" value="&lt;div&gt;package&lt;br&gt;&lt;/div&gt;&lt;div&gt;&lt;i&gt;prepare for shipment&lt;/i&gt;&lt;br&gt;&lt;/div&gt;" style="text;html=1;strokeColor=none;fillColor=none;align=center;verticalAlign=middle;whiteSpace=wrap;rounded=0;fontSize=16;" parent="1" vertex="1">
          <mxGeometry y="373" width="250" height="40" as="geometry" />
        </mxCell>
        <mxCell id="EqhZu1eOrCG1yo601mlV-32" style="edgeStyle=orthogonalEdgeStyle;rounded=0;orthogonalLoop=1;jettySize=auto;html=1;entryX=0.5;entryY=0;entryDx=0;entryDy=0;dashed=1;endArrow=classic;endFill=1;fontSize=16;" parent="1" source="EqhZu1eOrCG1yo601mlV-28" target="EqhZu1eOrCG1yo601mlV-17" edge="1">
          <mxGeometry relative="1" as="geometry" />
        </mxCell>
        <mxCell id="EqhZu1eOrCG1yo601mlV-33" value="&lt;div&gt;Proof of verification&lt;br&gt;&lt;/div&gt;&lt;div&gt;Code quality metrics&lt;br&gt;&lt;/div&gt;&lt;div&gt;&lt;br&gt;&lt;/div&gt;&lt;div&gt;&lt;br&gt;&lt;/div&gt;" style="text;html=1;strokeColor=#6c8ebf;fillColor=#dae8fc;align=center;verticalAlign=top;whiteSpace=wrap;rounded=0;fontSize=16;spacingTop=0;spacing=2;dashed=1;" parent="1" vertex="1">
          <mxGeometry y="659" width="250" height="60" as="geometry" />
        </mxCell>
        <mxCell id="y0mUGvuwtMBkLAOSmKgf-1" style="edgeStyle=orthogonalEdgeStyle;rounded=0;orthogonalLoop=1;jettySize=auto;html=1;entryX=0.5;entryY=0;entryDx=0;entryDy=0;fontSize=16;dashed=1;endArrow=none;endFill=0;exitX=0.5;exitY=1;exitDx=0;exitDy=0;" parent="1" target="y0mUGvuwtMBkLAOSmKgf-3" edge="1" source="EqhZu1eOrCG1yo601mlV-5">
          <mxGeometry relative="1" as="geometry">
            <mxPoint x="775" y="225" as="sourcePoint" />
          </mxGeometry>
        </mxCell>
        <mxCell id="gdnsNoD937hj0CEBPprj-106" style="edgeStyle=orthogonalEdgeStyle;rounded=0;orthogonalLoop=1;jettySize=auto;html=1;exitX=0.5;exitY=1;exitDx=0;exitDy=0;entryX=0.5;entryY=0;entryDx=0;entryDy=0;dashed=1;endArrow=none;endFill=0;strokeWidth=1;" edge="1" parent="1" source="y0mUGvuwtMBkLAOSmKgf-3" target="gdnsNoD937hj0CEBPprj-14">
          <mxGeometry relative="1" as="geometry" />
        </mxCell>
        <mxCell id="y0mUGvuwtMBkLAOSmKgf-3" value="validate&lt;br&gt;&lt;div&gt;&lt;i&gt;code style&lt;/i&gt;&lt;br&gt;&lt;/div&gt;" style="text;html=1;strokeColor=none;fillColor=none;align=center;verticalAlign=middle;whiteSpace=wrap;rounded=0;fontSize=16;" parent="1" vertex="1">
          <mxGeometry x="650" y="250" width="250" height="40" as="geometry" />
        </mxCell>
        <mxCell id="gdnsNoD937hj0CEBPprj-104" style="edgeStyle=orthogonalEdgeStyle;rounded=0;orthogonalLoop=1;jettySize=auto;html=1;exitX=0.5;exitY=1;exitDx=0;exitDy=0;entryX=0.5;entryY=0;entryDx=0;entryDy=0;dashed=1;endArrow=none;endFill=0;strokeWidth=1;" edge="1" parent="1" source="y0mUGvuwtMBkLAOSmKgf-5" target="y0mUGvuwtMBkLAOSmKgf-7">
          <mxGeometry relative="1" as="geometry" />
        </mxCell>
        <mxCell id="y0mUGvuwtMBkLAOSmKgf-5" value="&lt;div&gt;plan&lt;br&gt;&lt;/div&gt;&lt;div&gt;&lt;i&gt;identify required changes&lt;/i&gt;&lt;br&gt;&lt;/div&gt;" style="text;html=1;strokeColor=none;fillColor=none;align=center;verticalAlign=middle;whiteSpace=wrap;rounded=0;fontSize=16;" parent="1" vertex="1">
          <mxGeometry x="650" y="362" width="250" height="43" as="geometry" />
        </mxCell>
        <mxCell id="y0mUGvuwtMBkLAOSmKgf-7" value="&lt;div&gt;apply&lt;br&gt;&lt;/div&gt;&lt;div&gt;&lt;i&gt;execute the plan&lt;/i&gt;&lt;br&gt;&lt;/div&gt;" style="text;html=1;strokeColor=none;fillColor=none;align=center;verticalAlign=middle;whiteSpace=wrap;rounded=0;fontSize=16;" parent="1" vertex="1">
          <mxGeometry x="650" y="428" width="250" height="40" as="geometry" />
        </mxCell>
        <mxCell id="y0mUGvuwtMBkLAOSmKgf-9" style="edgeStyle=orthogonalEdgeStyle;rounded=0;orthogonalLoop=1;jettySize=auto;html=1;dashed=1;endArrow=classic;endFill=1;fontSize=16;exitX=0.5;exitY=1;exitDx=0;exitDy=0;" parent="1" source="y0mUGvuwtMBkLAOSmKgf-7" target="y0mUGvuwtMBkLAOSmKgf-13" edge="1">
          <mxGeometry relative="1" as="geometry">
            <mxPoint x="775" y="490" as="sourcePoint" />
            <mxPoint x="775" y="580" as="targetPoint" />
          </mxGeometry>
        </mxCell>
        <mxCell id="y0mUGvuwtMBkLAOSmKgf-11" value="&lt;div&gt;Login credentials&lt;br&gt;&lt;/div&gt;&lt;div&gt;Monitoring tools&lt;br&gt;&lt;/div&gt;" style="text;html=1;strokeColor=#6c8ebf;fillColor=#dae8fc;align=center;verticalAlign=top;whiteSpace=wrap;rounded=0;fontSize=16;spacingTop=0;spacing=2;dashed=1;" parent="1" vertex="1">
          <mxGeometry x="650" y="578" width="250" height="60" as="geometry" />
        </mxCell>
        <mxCell id="y0mUGvuwtMBkLAOSmKgf-27" style="edgeStyle=orthogonalEdgeStyle;rounded=0;orthogonalLoop=1;jettySize=auto;html=1;entryX=1;entryY=0.5;entryDx=0;entryDy=0;strokeColor=#808080;dashed=1;exitX=0.5;exitY=1;exitDx=0;exitDy=0;" parent="1" source="y0mUGvuwtMBkLAOSmKgf-11" target="EqhZu1eOrCG1yo601mlV-4" edge="1">
          <mxGeometry relative="1" as="geometry">
            <mxPoint x="609" y="670.0000000000002" as="sourcePoint" />
            <Array as="points">
              <mxPoint x="775" y="660" />
              <mxPoint x="630" y="660" />
              <mxPoint x="630" y="155" />
            </Array>
          </mxGeometry>
        </mxCell>
        <mxCell id="y0mUGvuwtMBkLAOSmKgf-13" value="&lt;div&gt;Kubernetes cluster&lt;br&gt;&lt;/div&gt;" style="text;html=1;fillColor=#dae8fc;align=center;verticalAlign=middle;whiteSpace=wrap;rounded=0;fontSize=16;fontStyle=1;strokeColor=#6c8ebf;" parent="1" vertex="1">
          <mxGeometry x="650" y="513" width="250" height="60" as="geometry" />
        </mxCell>
        <mxCell id="y0mUGvuwtMBkLAOSmKgf-16" style="edgeStyle=orthogonalEdgeStyle;rounded=0;orthogonalLoop=1;jettySize=auto;html=1;entryX=0.5;entryY=0;entryDx=0;entryDy=0;fontSize=16;dashed=1;endArrow=none;endFill=0;exitX=0.5;exitY=1;exitDx=0;exitDy=0;" parent="1" target="gdnsNoD937hj0CEBPprj-2" edge="1" source="EqhZu1eOrCG1yo601mlV-4">
          <mxGeometry relative="1" as="geometry">
            <mxPoint x="425" y="225" as="sourcePoint" />
            <mxPoint x="425" y="250" as="targetPoint" />
          </mxGeometry>
        </mxCell>
        <mxCell id="y0mUGvuwtMBkLAOSmKgf-17" style="edgeStyle=orthogonalEdgeStyle;rounded=0;orthogonalLoop=1;jettySize=auto;html=1;dashed=1;endArrow=none;endFill=0;fontSize=16;" parent="1" target="y0mUGvuwtMBkLAOSmKgf-20" edge="1">
          <mxGeometry relative="1" as="geometry">
            <mxPoint x="390" y="290" as="sourcePoint" />
          </mxGeometry>
        </mxCell>
        <mxCell id="gdnsNoD937hj0CEBPprj-64" style="edgeStyle=orthogonalEdgeStyle;rounded=0;orthogonalLoop=1;jettySize=auto;html=1;entryX=0.5;entryY=0;entryDx=0;entryDy=0;dashed=1;endArrow=none;endFill=0;" edge="1" parent="1" source="y0mUGvuwtMBkLAOSmKgf-19" target="gdnsNoD937hj0CEBPprj-54">
          <mxGeometry relative="1" as="geometry">
            <mxPoint x="450" y="777" as="targetPoint" />
          </mxGeometry>
        </mxCell>
        <mxCell id="y0mUGvuwtMBkLAOSmKgf-19" value="&lt;div&gt;Website online&lt;br&gt;&lt;/div&gt;" style="text;html=1;fillColor=#dae8fc;align=center;verticalAlign=middle;whiteSpace=wrap;rounded=0;fontSize=16;fontStyle=1;strokeColor=#6c8ebf;" parent="1" vertex="1">
          <mxGeometry x="325" y="659" width="250" height="60" as="geometry" />
        </mxCell>
        <mxCell id="y0mUGvuwtMBkLAOSmKgf-21" style="edgeStyle=orthogonalEdgeStyle;rounded=0;orthogonalLoop=1;jettySize=auto;html=1;entryX=0.5;entryY=1;entryDx=0;entryDy=0;dashed=1;endArrow=none;endFill=0;fontSize=16;" parent="1" source="y0mUGvuwtMBkLAOSmKgf-22" edge="1">
          <mxGeometry relative="1" as="geometry">
            <mxPoint x="390" y="357" as="targetPoint" />
          </mxGeometry>
        </mxCell>
        <mxCell id="gdnsNoD937hj0CEBPprj-85" style="edgeStyle=orthogonalEdgeStyle;rounded=0;orthogonalLoop=1;jettySize=auto;html=1;exitX=0.5;exitY=1;exitDx=0;exitDy=0;entryX=0.5;entryY=0;entryDx=0;entryDy=0;dashed=1;endArrow=none;endFill=0;" edge="1" parent="1" source="gdnsNoD937hj0CEBPprj-2" target="gdnsNoD937hj0CEBPprj-3">
          <mxGeometry relative="1" as="geometry" />
        </mxCell>
        <mxCell id="gdnsNoD937hj0CEBPprj-2" value="validate&lt;br&gt;&lt;div&gt;&lt;i&gt;code style&lt;/i&gt;&lt;br&gt;&lt;/div&gt;" style="text;html=1;strokeColor=none;fillColor=none;align=center;verticalAlign=middle;whiteSpace=wrap;rounded=0;fontSize=16;" vertex="1" parent="1">
          <mxGeometry x="325" y="250" width="250" height="40" as="geometry" />
        </mxCell>
        <mxCell id="gdnsNoD937hj0CEBPprj-3" value="&lt;div&gt;plan&lt;br&gt;&lt;/div&gt;&lt;div&gt;&lt;i&gt;identify required changes&lt;/i&gt;&lt;br&gt;&lt;/div&gt;" style="text;html=1;strokeColor=none;fillColor=none;align=center;verticalAlign=middle;whiteSpace=wrap;rounded=0;fontSize=16;" vertex="1" parent="1">
          <mxGeometry x="325" y="311" width="250" height="43" as="geometry" />
        </mxCell>
        <mxCell id="gdnsNoD937hj0CEBPprj-4" style="edgeStyle=orthogonalEdgeStyle;rounded=0;orthogonalLoop=1;jettySize=auto;html=1;entryX=0.5;entryY=1;entryDx=0;entryDy=0;dashed=1;endArrow=none;endFill=0;fontSize=16;" edge="1" parent="1" source="gdnsNoD937hj0CEBPprj-18" target="gdnsNoD937hj0CEBPprj-3">
          <mxGeometry relative="1" as="geometry" />
        </mxCell>
        <mxCell id="gdnsNoD937hj0CEBPprj-81" style="edgeStyle=orthogonalEdgeStyle;rounded=0;orthogonalLoop=1;jettySize=auto;html=1;exitX=0.5;exitY=1;exitDx=0;exitDy=0;entryX=0.5;entryY=0;entryDx=0;entryDy=0;dashed=1;endArrow=none;endFill=0;" edge="1" parent="1" source="gdnsNoD937hj0CEBPprj-5" target="y0mUGvuwtMBkLAOSmKgf-25">
          <mxGeometry relative="1" as="geometry" />
        </mxCell>
        <mxCell id="gdnsNoD937hj0CEBPprj-5" value="&lt;div&gt;apply&lt;br&gt;&lt;/div&gt;&lt;div&gt;&lt;i&gt;execute the plan&lt;/i&gt;&lt;br&gt;&lt;/div&gt;" style="text;html=1;strokeColor=none;fillColor=none;align=center;verticalAlign=middle;whiteSpace=wrap;rounded=0;fontSize=16;" vertex="1" parent="1">
          <mxGeometry x="325" y="433.665" width="250" height="40" as="geometry" />
        </mxCell>
        <mxCell id="gdnsNoD937hj0CEBPprj-105" style="edgeStyle=orthogonalEdgeStyle;rounded=0;orthogonalLoop=1;jettySize=auto;html=1;exitX=0.5;exitY=1;exitDx=0;exitDy=0;entryX=0.5;entryY=0;entryDx=0;entryDy=0;dashed=1;endArrow=none;endFill=0;strokeWidth=1;" edge="1" parent="1" source="gdnsNoD937hj0CEBPprj-14" target="y0mUGvuwtMBkLAOSmKgf-5">
          <mxGeometry relative="1" as="geometry" />
        </mxCell>
        <mxCell id="gdnsNoD937hj0CEBPprj-14" value="" style="shape=image;verticalLabelPosition=bottom;labelBackgroundColor=#ffffff;verticalAlign=top;aspect=fixed;imageAspect=0;image=https://upload.wikimedia.org/wikipedia/commons/thumb/8/87/Octicons-git-pull-request.svg/768px-Octicons-git-pull-request.svg.png;" vertex="1" parent="1">
          <mxGeometry x="762.5" y="310" width="25" height="33.33" as="geometry" />
        </mxCell>
        <mxCell id="gdnsNoD937hj0CEBPprj-84" style="edgeStyle=orthogonalEdgeStyle;rounded=0;orthogonalLoop=1;jettySize=auto;html=1;exitX=0.5;exitY=1;exitDx=0;exitDy=0;entryX=0.5;entryY=0;entryDx=0;entryDy=0;dashed=1;endArrow=none;endFill=0;" edge="1" parent="1" source="gdnsNoD937hj0CEBPprj-18" target="gdnsNoD937hj0CEBPprj-5">
          <mxGeometry relative="1" as="geometry" />
        </mxCell>
        <mxCell id="gdnsNoD937hj0CEBPprj-18" value="" style="shape=image;verticalLabelPosition=bottom;labelBackgroundColor=#ffffff;verticalAlign=top;aspect=fixed;imageAspect=0;image=https://upload.wikimedia.org/wikipedia/commons/thumb/8/87/Octicons-git-pull-request.svg/768px-Octicons-git-pull-request.svg.png;" vertex="1" parent="1">
          <mxGeometry x="437.5" y="376.335" width="25" height="33.33" as="geometry" />
        </mxCell>
        <mxCell id="gdnsNoD937hj0CEBPprj-67" style="edgeStyle=orthogonalEdgeStyle;rounded=0;orthogonalLoop=1;jettySize=auto;html=1;exitX=0.5;exitY=1;exitDx=0;exitDy=0;entryX=0.5;entryY=0;entryDx=0;entryDy=0;dashed=1;endArrow=none;endFill=0;" edge="1" parent="1" source="gdnsNoD937hj0CEBPprj-23" target="EqhZu1eOrCG1yo601mlV-28">
          <mxGeometry relative="1" as="geometry" />
        </mxCell>
        <mxCell id="gdnsNoD937hj0CEBPprj-23" value="" style="shape=image;verticalLabelPosition=bottom;labelBackgroundColor=#ffffff;verticalAlign=top;aspect=fixed;imageAspect=0;image=https://upload.wikimedia.org/wikipedia/commons/thumb/8/87/Octicons-git-pull-request.svg/768px-Octicons-git-pull-request.svg.png;" vertex="1" parent="1">
          <mxGeometry x="112.5" y="437" width="25" height="33.33" as="geometry" />
        </mxCell>
        <mxCell id="gdnsNoD937hj0CEBPprj-45" value="" style="group" vertex="1" connectable="0" parent="1">
          <mxGeometry x="25" y="495" width="200" height="40" as="geometry" />
        </mxCell>
        <mxCell id="gdnsNoD937hj0CEBPprj-31" value="" style="group" vertex="1" connectable="0" parent="gdnsNoD937hj0CEBPprj-45">
          <mxGeometry width="200" height="40" as="geometry" />
        </mxCell>
        <mxCell id="gdnsNoD937hj0CEBPprj-48" value="" style="group" vertex="1" connectable="0" parent="1">
          <mxGeometry y="495" width="250" height="40" as="geometry" />
        </mxCell>
        <mxCell id="EqhZu1eOrCG1yo601mlV-28" value="&lt;div&gt;publish&lt;br&gt;&lt;/div&gt;&lt;div&gt;&lt;i&gt;upload artifacts&lt;/i&gt;&lt;br&gt;&lt;/div&gt;" style="text;html=1;strokeColor=none;fillColor=none;align=center;verticalAlign=middle;whiteSpace=wrap;rounded=0;fontSize=16;" parent="gdnsNoD937hj0CEBPprj-48" vertex="1">
          <mxGeometry width="250" height="40" as="geometry" />
        </mxCell>
        <mxCell id="gdnsNoD937hj0CEBPprj-28" value="" style="shape=image;verticalLabelPosition=bottom;labelBackgroundColor=#ffffff;verticalAlign=top;aspect=fixed;imageAspect=0;image=https://cdn.onlinewebfonts.com/svg/img_217916.png;" vertex="1" parent="gdnsNoD937hj0CEBPprj-48">
          <mxGeometry x="15" y="5" width="30" height="30" as="geometry" />
        </mxCell>
        <mxCell id="gdnsNoD937hj0CEBPprj-49" value="" style="group" vertex="1" connectable="0" parent="1">
          <mxGeometry x="325" y="495" width="250" height="40" as="geometry" />
        </mxCell>
        <mxCell id="y0mUGvuwtMBkLAOSmKgf-25" value="&lt;div&gt;bootstrap&lt;br&gt;&lt;/div&gt;&lt;div&gt;&lt;i&gt;generate data&lt;/i&gt;&lt;br&gt;&lt;/div&gt;" style="text;html=1;strokeColor=none;fillColor=none;align=center;verticalAlign=middle;whiteSpace=wrap;rounded=0;fontSize=16;" parent="gdnsNoD937hj0CEBPprj-49" vertex="1">
          <mxGeometry width="250" height="40" as="geometry" />
        </mxCell>
        <mxCell id="gdnsNoD937hj0CEBPprj-22" value="" style="shape=image;verticalLabelPosition=bottom;labelBackgroundColor=#ffffff;verticalAlign=top;aspect=fixed;imageAspect=0;image=https://cdn.onlinewebfonts.com/svg/img_217916.png;" vertex="1" parent="gdnsNoD937hj0CEBPprj-49">
          <mxGeometry x="15" y="5" width="30" height="30" as="geometry" />
        </mxCell>
        <mxCell id="gdnsNoD937hj0CEBPprj-69" value="" style="group" vertex="1" connectable="0" parent="1">
          <mxGeometry x="325" y="800" width="250" height="43" as="geometry" />
        </mxCell>
        <mxCell id="gdnsNoD937hj0CEBPprj-54" value="load testing&lt;br&gt;&lt;div&gt;&lt;i&gt;verify performance&lt;/i&gt;&lt;br&gt;&lt;/div&gt;" style="text;html=1;strokeColor=none;fillColor=none;align=center;verticalAlign=middle;whiteSpace=wrap;rounded=0;fontSize=16;" vertex="1" parent="gdnsNoD937hj0CEBPprj-69">
          <mxGeometry width="250" height="43" as="geometry" />
        </mxCell>
        <mxCell id="gdnsNoD937hj0CEBPprj-62" value="" style="shape=image;verticalLabelPosition=bottom;labelBackgroundColor=#ffffff;verticalAlign=top;aspect=fixed;imageAspect=0;image=https://cdn.onlinewebfonts.com/svg/img_217916.png;" vertex="1" parent="gdnsNoD937hj0CEBPprj-69">
          <mxGeometry x="15" y="6.5" width="30" height="30" as="geometry" />
        </mxCell>
        <mxCell id="gdnsNoD937hj0CEBPprj-72" value="" style="group" vertex="1" connectable="0" parent="1">
          <mxGeometry x="325" y="863" width="250" height="43" as="geometry" />
        </mxCell>
        <mxCell id="gdnsNoD937hj0CEBPprj-73" value="system testing&lt;br&gt;&lt;div&gt;&lt;i&gt;Validate functionality&lt;/i&gt;&lt;br&gt;&lt;/div&gt;" style="text;html=1;strokeColor=none;fillColor=none;align=center;verticalAlign=middle;whiteSpace=wrap;rounded=0;fontSize=16;" vertex="1" parent="gdnsNoD937hj0CEBPprj-72">
          <mxGeometry width="250" height="43" as="geometry" />
        </mxCell>
        <mxCell id="gdnsNoD937hj0CEBPprj-75" style="edgeStyle=orthogonalEdgeStyle;rounded=0;orthogonalLoop=1;jettySize=auto;html=1;exitX=0.5;exitY=1;exitDx=0;exitDy=0;entryX=0.5;entryY=0;entryDx=0;entryDy=0;dashed=1;endArrow=none;endFill=0;" edge="1" parent="1" source="gdnsNoD937hj0CEBPprj-54" target="gdnsNoD937hj0CEBPprj-73">
          <mxGeometry relative="1" as="geometry" />
        </mxCell>
        <mxCell id="gdnsNoD937hj0CEBPprj-78" value="" style="group" vertex="1" connectable="0" parent="1">
          <mxGeometry x="325" y="556.34" width="250" height="40" as="geometry" />
        </mxCell>
        <mxCell id="gdnsNoD937hj0CEBPprj-79" value="&lt;div&gt;smoke testing&lt;br&gt;&lt;/div&gt;&lt;div&gt;&lt;i&gt;verify configuration&lt;/i&gt;&lt;br&gt;&lt;/div&gt;" style="text;html=1;strokeColor=none;fillColor=none;align=center;verticalAlign=middle;whiteSpace=wrap;rounded=0;fontSize=16;" vertex="1" parent="gdnsNoD937hj0CEBPprj-78">
          <mxGeometry width="250" height="40" as="geometry" />
        </mxCell>
        <mxCell id="gdnsNoD937hj0CEBPprj-82" style="edgeStyle=orthogonalEdgeStyle;rounded=0;orthogonalLoop=1;jettySize=auto;html=1;exitX=0.5;exitY=1;exitDx=0;exitDy=0;entryX=0.5;entryY=0;entryDx=0;entryDy=0;dashed=1;endArrow=none;endFill=0;" edge="1" parent="1" source="y0mUGvuwtMBkLAOSmKgf-25" target="gdnsNoD937hj0CEBPprj-79">
          <mxGeometry relative="1" as="geometry" />
        </mxCell>
        <mxCell id="gdnsNoD937hj0CEBPprj-83" style="edgeStyle=orthogonalEdgeStyle;rounded=0;orthogonalLoop=1;jettySize=auto;html=1;exitX=0.5;exitY=1;exitDx=0;exitDy=0;entryX=0.5;entryY=0;entryDx=0;entryDy=0;dashed=1;endArrow=classic;endFill=1;" edge="1" parent="1" source="gdnsNoD937hj0CEBPprj-79" target="y0mUGvuwtMBkLAOSmKgf-19">
          <mxGeometry relative="1" as="geometry" />
        </mxCell>
        <mxCell id="gdnsNoD937hj0CEBPprj-94" style="edgeStyle=orthogonalEdgeStyle;rounded=0;orthogonalLoop=1;jettySize=auto;html=1;entryX=0;entryY=0.5;entryDx=0;entryDy=0;endArrow=none;endFill=0;exitX=0.5;exitY=1;exitDx=0;exitDy=0;strokeWidth=1;" edge="1" parent="1" source="gdnsNoD937hj0CEBPprj-87" target="gdnsNoD937hj0CEBPprj-16">
          <mxGeometry relative="1" as="geometry" />
        </mxCell>
        <mxCell id="gdnsNoD937hj0CEBPprj-87" value="&lt;div&gt;Performance results&lt;/div&gt;&lt;div&gt;Proof of validation&lt;br&gt;&lt;/div&gt;&lt;div&gt;&lt;br&gt;&lt;/div&gt;" style="text;html=1;strokeColor=#6c8ebf;fillColor=#dae8fc;align=center;verticalAlign=top;whiteSpace=wrap;rounded=0;fontSize=16;spacingTop=0;spacing=2;dashed=1;" vertex="1" parent="1">
          <mxGeometry x="325" y="960" width="250" height="60" as="geometry" />
        </mxCell>
        <mxCell id="gdnsNoD937hj0CEBPprj-88" style="edgeStyle=orthogonalEdgeStyle;rounded=0;orthogonalLoop=1;jettySize=auto;html=1;exitX=0.5;exitY=1;exitDx=0;exitDy=0;entryX=0.5;entryY=0;entryDx=0;entryDy=0;dashed=1;endArrow=classic;endFill=1;" edge="1" parent="1" source="gdnsNoD937hj0CEBPprj-73" target="gdnsNoD937hj0CEBPprj-87">
          <mxGeometry relative="1" as="geometry" />
        </mxCell>
        <mxCell id="gdnsNoD937hj0CEBPprj-95" style="edgeStyle=orthogonalEdgeStyle;rounded=0;orthogonalLoop=1;jettySize=auto;html=1;entryX=1;entryY=0.5;entryDx=0;entryDy=0;endArrow=classic;endFill=1;exitX=0.5;exitY=0;exitDx=0;exitDy=0;strokeWidth=1;" edge="1" parent="1" source="gdnsNoD937hj0CEBPprj-16" target="gdnsNoD937hj0CEBPprj-2">
          <mxGeometry relative="1" as="geometry">
            <Array as="points">
              <mxPoint x="600" y="1005" />
              <mxPoint x="600" y="270" />
            </Array>
          </mxGeometry>
        </mxCell>
        <mxCell id="gdnsNoD937hj0CEBPprj-16" value="" style="shape=image;verticalLabelPosition=bottom;labelBackgroundColor=#ffffff;verticalAlign=top;aspect=fixed;imageAspect=0;image=https://cdn.onlinewebfonts.com/svg/img_217916.png;" vertex="1" parent="1">
          <mxGeometry x="585" y="1031" width="30" height="30" as="geometry" />
        </mxCell>
        <mxCell id="gdnsNoD937hj0CEBPprj-97" value="GO / NO-GO PRODUCTION" style="text;html=1;strokeColor=none;fillColor=none;align=left;verticalAlign=middle;whiteSpace=wrap;rounded=0;fontSize=16;fontStyle=1" vertex="1" parent="1">
          <mxGeometry x="635" y="1026" width="223.5" height="40" as="geometry" />
        </mxCell>
        <mxCell id="gdnsNoD937hj0CEBPprj-98" value="&lt;i style=&quot;font-size: 12px&quot;&gt;Staging only&lt;br style=&quot;font-size: 12px&quot;&gt;&lt;/i&gt;" style="text;html=1;strokeColor=none;fillColor=none;align=left;verticalAlign=middle;whiteSpace=wrap;rounded=0;fontSize=12;fontStyle=0" vertex="1" parent="1">
          <mxGeometry x="338" y="750" width="223.5" height="40" as="geometry" />
        </mxCell>
        <mxCell id="gdnsNoD937hj0CEBPprj-107" value="" style="group" vertex="1" connectable="0" parent="1">
          <mxGeometry y="864" width="250" height="156" as="geometry" />
        </mxCell>
        <mxCell id="gdnsNoD937hj0CEBPprj-99" value="" style="rounded=0;whiteSpace=wrap;html=1;dashed=1;strokeColor=#d6b656;align=left;fillColor=#fff2cc;" vertex="1" parent="gdnsNoD937hj0CEBPprj-107">
          <mxGeometry width="250" height="156" as="geometry" />
        </mxCell>
        <mxCell id="gdnsNoD937hj0CEBPprj-17" value="" style="shape=image;verticalLabelPosition=bottom;labelBackgroundColor=#ffffff;verticalAlign=top;aspect=fixed;imageAspect=0;image=https://upload.wikimedia.org/wikipedia/commons/thumb/8/87/Octicons-git-pull-request.svg/768px-Octicons-git-pull-request.svg.png;" vertex="1" parent="gdnsNoD937hj0CEBPprj-107">
          <mxGeometry x="22.5" y="57" width="25" height="33.33" as="geometry" />
        </mxCell>
        <mxCell id="gdnsNoD937hj0CEBPprj-96" value="" style="shape=image;verticalLabelPosition=bottom;labelBackgroundColor=#ffffff;verticalAlign=top;aspect=fixed;imageAspect=0;image=https://cdn.onlinewebfonts.com/svg/img_217916.png;" vertex="1" parent="gdnsNoD937hj0CEBPprj-107">
          <mxGeometry x="20" y="106" width="30" height="30" as="geometry" />
        </mxCell>
        <mxCell id="gdnsNoD937hj0CEBPprj-100" value="Legenda" style="text;html=1;strokeColor=none;fillColor=none;align=center;verticalAlign=middle;whiteSpace=wrap;rounded=0;fontSize=16;fontStyle=1" vertex="1" parent="gdnsNoD937hj0CEBPprj-107">
          <mxGeometry x="13.25" y="7" width="223.5" height="40" as="geometry" />
        </mxCell>
        <mxCell id="gdnsNoD937hj0CEBPprj-101" value="code review " style="text;html=1;strokeColor=none;fillColor=none;align=left;verticalAlign=middle;whiteSpace=wrap;rounded=0;fontSize=16;fontStyle=0" vertex="1" parent="gdnsNoD937hj0CEBPprj-107">
          <mxGeometry x="60" y="53.664999999999964" width="176.75" height="40" as="geometry" />
        </mxCell>
        <mxCell id="gdnsNoD937hj0CEBPprj-102" value="manual approval" style="text;html=1;strokeColor=none;fillColor=none;align=left;verticalAlign=middle;whiteSpace=wrap;rounded=0;fontSize=16;fontStyle=0" vertex="1" parent="gdnsNoD937hj0CEBPprj-107">
          <mxGeometry x="60" y="100.995" width="176.75" height="40" as="geometry" />
        </mxCell>
      </root>
    </mxGraphModel>
  </diagram>
</mxfile>
